.
…
Sampling design

Cluster sampling

use when subgroups are mutually heterogenous but are internally heterogenous.

e.g., all inhabitant in a municipality from part of a population, barangays can serve as clusters wherein its inhabitant can serve as observations.

Sampling design

Example in R

insert examples

# A tibble: 300 × 4
   barangay      id   age income
   <chr>      <int> <int>  <int>
 1 Barangay_2   101    69  35188
 2 Barangay_2   102    39  29076
 3 Barangay_2   103    42  45150
 4 Barangay_2   104    49  11631
 5 Barangay_2   105    63  18610
 6 Barangay_2   106    42  16037
 7 Barangay_2   107    40  22888
 8 Barangay_2   108    52  25994
 9 Barangay_2   109    57  25302
10 Barangay_2   110    65  20447
# ℹ 290 more rows
…
